map                   	351	0.3183
map                   	352	0.0243
map                   	353	0.1990
map                   	354	0.0814
map                   	355	0.0985
map                   	356	0.0109
map                   	357	0.3005
map                   	358	0.1680
map                   	359	0.0216
map                   	360	0.2034
map                   	361	0.2798
map                   	362	0.0737
map                   	363	0.0118
map                   	364	0.4555
map                   	365	0.6790
map                   	366	0.3457
map                   	367	0.0663
map                   	368	0.3456
map                   	369	0.2662
map                   	370	0.1088
map                   	371	0.0020
map                   	372	0.0978
map                   	373	0.3624
map                   	374	0.2037
map                   	375	0.1829
map                   	376	0.0271
map                   	377	0.2990
map                   	378	0.0054
map                   	379	0.0703
map                   	380	0.1930
map                   	381	0.0260
map                   	382	0.4795
map                   	383	0.0255
map                   	384	0.1903
map                   	385	0.2659
map                   	386	0.0317
map                   	387	0.1254
map                   	388	0.0217
map                   	389	0.0212
map                   	390	0.1028
map                   	391	0.1092
map                   	392	0.4313
map                   	393	0.0370
map                   	394	0.0168
map                   	395	0.1212
map                   	396	0.3032
map                   	397	0.0279
map                   	398	0.0224
map                   	399	0.1022
map                   	400	0.3596
map                   	all	0.1665
